…
```
## `summarise()` regrouping output by 'year' (override with `.groups` argument)
```

```r
gapminder_summary
```

```
## # A tibble: 60 x 5
## # Groups:   year [12]
##    year  continent min_life_exp mean_life_exp max_life_exp
##    <fct> <fct>            <dbl>         <dbl>        <dbl>
##  1 1952  Africa            30            39.1         52.7
##  2 1952  Americas          37.6          53.3         68.8
##  3 1952  Asia              28.8          46.3         65.4
##  4 1952  Europe            43.6          64.4         72.7
##  5 1952  Oceania           69.1          69.3         69.4
##  6 1957  Africa            31.6          41.3         58.1
##  7 1957  Americas          40.7          56.0         70.0
##  8 1957  Asia              30.3          49.3         67.8
##  9 1957  Europe            48.1          66.7         73.5
## 10 1957  Oceania           70.3          70.3         70.3
## # … with 50 more rows
```
…
**7. Which countries have had the largest population growth since 1952?**

```r
gapminder_diff <- gapminder%>%
  group_by(country)%>%
  filter(year==1952 | year==2007)%>%
  mutate(pop_growth = pop - lag(pop, default = first(pop)))
gapminder_diff
```

```
## # A tibble: 284 x 7
## # Groups:   country [142]
##    country     continent year  lifeExp      pop gdpPercap pop_growth
##    <fct>       <fct>     <fct>   <dbl>    <int>     <dbl>      <int>
##  1 Afghanistan Asia      1952     28.8  8425333      779.          0
##  2 Afghanistan Asia      2007     43.8 31889923      975.   23464590
##  3 Albania     Europe    1952     55.2  1282697     1601.          0
##  4 Albania     Europe    2007     76.4  3600523     5937.    2317826
##  5 Algeria     Africa    1952     43.1  9279525     2449.          0
##  6 Algeria     Africa    2007     72.3 33333216     6223.   24053691
##  7 Angola      Africa    1952     30.0  4232095     3521.          0
##  8 Angola      Africa    2007     42.7 12420476     4797.    8188381
##  9 Argentina   Americas  1952     62.5 17876956     5911.          0
## 10 Argentina   Americas  2007     75.3 40301927    12779.   22424971
## # … with 274 more rows
```


```r
gapminder_diff %>%
  arrange(desc(pop_growth))
```

```
## # A tibble: 284 x 7
## # Groups:   country [142]
##    country       continent year  lifeExp        pop gdpPercap pop_growth
##    <fct>         <fct>     <fct>   <dbl>      <int>     <dbl>      <int>
##  1 China         Asia      2007     73.0 1318683096     4959.  762419569
##  2 India         Asia      2007     64.7 1110396331     2452.  738396331
##  3 United States Americas  2007     78.2  301139947    42952.  143586947
##  4 Indonesia     Asia      2007     70.6  223547000     3541.  141495000
##  5 Brazil        Americas  2007     72.4  190010647     9066.  133408087
##  6 Pakistan      Asia      2007     65.5  169270617     2606.  127924057
##  7 Bangladesh    Asia      2007     64.1  150448339     1391.  103561480
##  8 Nigeria       Africa    2007     46.9  135031164     2014.  101912068
##  9 Mexico        Americas  2007     76.2  108700891    11978.   78556574
## 10 Philippines   Asia      2007     71.7   91077287     3190.   68638596
## # … with 274 more rows
```
…
